{
  "images" : [
    {
      "idiom" : "iphone",
      "filename" : "sponser.png",
      "scale" : "1x"
    },
    {
      "idiom" : "iphone",
      "filename" : "sponser-1.png",
      "scale" : "2x"
    },
    {
      "idiom" : "iphone",
      "filename" : "sponser-2.png",
      "scale" : "3x"
    },
    {
      "idiom" : "ipad",
      "filename" : "sponseripad.png",
      "scale" : "1x"
    },
    {
      "idiom" : "ipad",
      "filename" : "sponseripad@2x.png",
      "scale" : "2x"
    }
  ],
  "info" : {
    "version" : 1,
    "author" : "xcode"
  }
}